<apex:page controller="SearchCourses_CC" tabStyle="Course__c">
   	<apex:form >
        <apex:pageBlock title="Course Search">
            <apex:pageBlockButtons >
				<!-- TODO #4: Create an apex:commandButton component with an attribute named action
				              that is dynamically bound to the listDeliveries property and an attribute
                              named value that has the value "See Upcoming Course Deliveries" -->
                <apex:commandButton action="{!listDeliveries}" value="See Upcoming Course Deliveries"  />
            </apex:pageBlockButtons>
			<!--  TODO #5: In the pageBlockTable component add a value attribute that is dynamically
			               bound to the courseList property and an attribute named var assigned the
						   value "c"-->
            <apex:pageBlockTable var="c" value="{!courseList}" >
                <apex:column width="25px" headerValue="Select">
          <!--  TODO #6: In the checkbox component add a value attribute that is dynamically
			               bound to the checked property -->
                    <apex:inputCheckbox value="{!c.checked}" />
                </apex:column>
                <apex:column value="{!c.course.Name}" />
				<!--  TODO #7: In the column component add a value attribute that is dynamically
			               bound to the Name of the related Certification__r sObject for the Course__c sObject c -->
                <apex:column value="{!c.course.Certification__r.Name}" />
                <apex:column value="{!c.course.Duration__c}" />
                <apex:column value="{!c.course.Status__c}" />
            </apex:pageBlockTable>
        </apex:pageBlock>
    </apex:form>
</apex:page>
