<apex:page controller="SOQLController" >
    <apex:form >
        <apex:outputText value="Enter Name" />
        <apex:inputText value="{!name}"/>
        <apex:commandButton value="Query" action="{!query}" />
        
        <apex:pageBlock rendered="{!NOT(ISNULL(name))}">
            <apex:pageBlockTable value="{!queryResult}" var="certHeld">
                <apex:column value="{!certHeld.Certified_Professional__r.Name}"/>
                <apex:column value="{!certHeld.Certification__r.Name}"/>
                <apex:column value="{!certHeld.Certification__r.Number_of_Certified_Professionals__c}"/>
            </apex:pageBlockTable>
        </apex:pageBlock>
    </apex:form>
</apex:page>
